…
As of right now, these data are not tidy, because the routes at each
station are indicated as seperate variables, rather than as observations
withing a “routes” variable. We can fix that using `pivot_longer`:

``` r
subway_df |>
  pivot_longer(cols = route1:route11,
               names_to = "route_number",
               values_to = "route_name",
               names_prefix = "route") |>
  drop_na(route_name)
```

    ## # A tibble: 4,270 × 10
    ##    line     station_name station_latitude station_longitude entry vending
    ##    <chr>    <chr>                   <dbl>             <dbl> <lgl> <chr>  
    ##  1 4 Avenue 25th St                  40.7             -74.0 TRUE  YES    
    ##  2 4 Avenue 25th St                  40.7             -74.0 TRUE  YES    
    ##  3 4 Avenue 36th St                  40.7             -74.0 TRUE  YES    
    ##  4 4 Avenue 36th St                  40.7             -74.0 TRUE  YES    
    ##  5 4 Avenue 36th St                  40.7             -74.0 TRUE  YES    
    ##  6 4 Avenue 36th St                  40.7             -74.0 TRUE  YES    
    ##  7 4 Avenue 36th St                  40.7             -74.0 TRUE  YES    
    ##  8 4 Avenue 36th St                  40.7             -74.0 TRUE  YES    
    ##  9 4 Avenue 45th St                  40.6             -74.0 TRUE  YES    
    ## 10 4 Avenue 45th St                  40.6             -74.0 TRUE  YES    
    ## # ℹ 4,260 more rows
    ## # ℹ 4 more variables: entrance_type <chr>, ada <lgl>, route_number <chr>,
    ## #   route_name <chr>
…
